{
	"$id" : "https://gitlab.com/php-extended/php-api-fr-insee-cog-interface/json-schema.json",
	"$schema": "https://json-schema.org/draft/2020-12/schema",
	"type" : "null",
	"$defs" : {
		"ApiFrInseeCogActualitePays" : {
			"type" : "object",
			"description" : "This represents the state of the country from the point of view of the Official Geographic Code.",
			"properties" : {
				"id" : {
					"type" : "integer",
					"description" : "The id of this actualite pays."
				},
				"libelle" : {
					"type" : "string",
					"description" : "The libelle of this actualite pays."
				}
			},
			"required" : ["id", "libelle"]
		},
		"ApiFrInseeCogArrondissement" : {
			"type" : "object",
			"description" : "This represents the arrondissements from the insee database.",
			"properties" : {
				"id" : {
					"type" : "string",
					"description" : "The id of this arrondissement."
				},
				"fkDepartement" : {
					"type" : "string",
					"description" : "The fk of the related departement."
				},
				"fkCommuneCheflieu" : {
					"type" : "string",
					"description" : "The fk of the commune as cheflieu."
				},
				"fkTncc" : {
					"type" : "integer",
					"description" : "The type of name of this arrondissement."
				},
				"ncc" : {
					"type" : "string",
					"description" : "The name of this arrondissement."
				},
				"nccenr" : {
					"type" : "string",
					"description" : "The enriched name of this arrondissement."
				}
			},
			"required" : ["id", "fkDepartement", "fkCommuneCheflieu", "fkTncc", "ncc", "nccenr"]
		},
		"ApiFrInseeCogCanton" : {
			"type" : "object",
			"description" : "This represents the cantons from the insee database.",
			"properties" : {
				"id" : {
					"type" : "string",
					"description" : "The id of this canton."
				},
				"fkArrondissement" : {
					"type" : "string",
					"description" : "The fk of the related arrondissement."
				},
				"fkTypeCanton" : {
					"type" : "string",
					"description" : "The fk of the related type of canton."
				},
				"fkCompositionCantonale" : {
					"type" : "integer",
					"description" : "The fk of the related composition cantonale."
				},
				"fkCommuneCheflieu" : {
					"type" : "string",
					"description" : "The fk of the related commune as cheflieu."
				},
				"fkTncc" : {
					"type" : "integer",
					"description" : "The type of name of this canton."
				},
				"ncc" : {
					"type" : "string",
					"description" : "The name of this canton."
				},
				"nccenr" : {
					"type" : "string",
					"description" : "The enriched name of this canton."
				}
			},
			"required" : ["id", "fkArrondissement", "fkTypeCanton", "fkCompositionCantonale", "fkCommuneCheflieu", "fkTncc", "ncc", "nccenr"]
		},
		"ApiFrInseeCogCollectiviteTerritoriale" : {
			"type" : "object",
			"description" : "This represents all the _collectivites territoriales ayant competences departementales_ .",
			"properties" : {
				"id" : {
                    "type" : "string",
                    "description" : "The id of this collectivite territoriale."
                },
                "fkRegion" : {
                    "type" : "string",
                    "description" : "The fk of the related region."
                },
				"fkCommuneCheflieu" : {
					"type" : "string",
                    "description" : "The fk of the related commune as cheflieu."
				},
				"fkTncc" : {
					"type" : "integer",
                    "description" : "The fk of the type of name of this collectivite territoriale."
				},
				"ncc" : {
					"type" : "string",
					"description" : "The name of this  collectivite territoriale."
				},
				"nccenr" : {
					"type" : "string",
					"description" : "The enriched name of this  collectivite territoriale."
				},
                "libelle" : {
                    "type" : "string",
                    "description" : "The libelle of this collectivite territoriale."
                }
			},
			"required" : ["id", "fkRegion", "fkCommuneCheflieu", "fkTncc", "ncc", "nccenr", "libelle"]
		},
		"ApiFrInseeCogCommune" : {
			"type" : "object",
			"description" : "This represents the communes from the insee database.",
			"properties" : {
				"id" : {
					"type" : "string",
					"description" : "The id of this commune."
				},
				"fkTypeCommune" : {
					"type" : "string",
					"description" : "The fk of the related type commune."
				},
				"fkDepartement" : {
					"type" : "string",
					"description" : "The fk of the related departement."
				},
				"fkCommuneParent" : {
					"type" : "string",
					"description" : "The fk of the related parent commune, if any."
				},
				"fkTncc" : {
					"type" : "integer",
					"description" : "The fk of the type of name of this commune."
				},
				"ncc" : {
					"type" : "string",
					"description" : "The name of this commune."
				},
				"nccenr" : {
					"type" : "string",
					"description" : "The enriched name of this commune."
				}
			},
			"required" : ["id", "fkTypeCommune", "fkDepartement", "fkTncc", "ncc", "nccenr"]
		},
		"ApiFrInseeCogCompositionCantonale" : {
			"type" : "object",
			"description" : "This represents the state of fractions of communes present in the canton.",
			"properties" : {
				"id" : {
					"type" : "integer",
					"description" : "The id of this composition cantonale."
				},
				"libelle" : {
					"type" : "string",
					"description" : "The libelle of this composition cantonale."
				}
			},
			"required" : ["id", "libelle"]
		},
		"ApiFrInseeCogDepartement" : {
			"type" : "object",
			"description" : "This represents the departements from the insee database.",
			"properties" : {
				"id" : {
					"type" : "string",
					"description" : "The id of this departement."
				},
				"fkRegion" : {
					"type" : "string",
					"description" : "The fk of the related region."
				},
				"fkCommuneCheflieu" : {
					"type" : "string",
					"description" : "The fk of the related commune as cheflieu."
				},
				"fkTncc" : {
					"type" : "integer",
					"description" : "The fk of the type of name of this departement."
				},
				"ncc" : {
					"type" : "string",
					"description" : "The name of this departement."
				},
				"nccenr" : {
					"type" : "string",
					"description" : "The enriched name of this departement."
				}
			},
			"required" : ["id", "fkRegion", "fkCommuneCheflieu", "fkTncc", "ncc", "nccenr"]
		},
		"ApiFrInseeCogEventCommune" : {
			"type" : "object",
			"description" : "This represents the events on the communes from the insee database.",
			"properties" : {
				"dateEffet" : {
					"type" : "string",
					"description" : "The date of the event.",
					"format" : "date"
				},
				"fkTypeEventCommune" : {
					"type" : "integer",
					"description" : "The id of the related type of event."
				},
				"fkTypeCommuneBefore" : {
					"type" : "string",
					"description" : "The id of the type of commune before the event."
				},
				"fkCommuneBefore" : {
					"type" : "string",
					"description" : "The id of the commune before the event."
				},
				"fkTypeCommuneAfter" : {
					"type" : "string",
					"description" : "The id of the type of commune after the event."
				},
				"fkCommuneAfter" : {
					"type" : "string",
					"description" : "The id of the commune after the event."
				},
				"fkTnccBefore" : {
					"type" : "integer",
					"description" : "The type of name of the commune before the event."
				},
				"nccBefore" : {
					"type" : "string",
					"description" : "The name of the commune before the event."
				},
				"nccenrBefore" : {
					"type" : "string",
					"description" : "The enriched name of the commune before the event."
				},
				"fkTnccAfter" : {
					"type" : "integer",
					"description" : "The type of name of the commune after the event."
				},
				"nccAfter" : {
					"type" : "string",
					"description" : "The name of the commune after the event."
				},
				"nccenrAfter" : {
					"type" : "string",
					"description" : "The enriched name of the commune after the event."
				}
			},
			"required" : ["dateEffet", "fkTypeEventCommune", "fkTypeCommuneBefore", "fkCommuneBefore", "fkTypeCommuneAfter", "fkCommuneAfter", "fkTnccBefore", "nccBefore", "nccenrBefore", "fkTnccAfter", "nccAfter", "nccenrAfter"]
		},
		"ApiFrInseeCogPays" : {
			"type" : "object",
			"description" : "This represents the countries from the insee database.",
			"properties" : {
				"id" : {
					"type" : "integer",
					"description" : "The id of this country."
				},
				"fkActualitePays" : {
					"type" : "integer",
					"description" : "The fk of the related actual country."
				},
				"fkPaysParent" : {
					"type" : "integer",
					"description" : "The fk of the current parent country, if any."
				},
				"creationYear" : {
					"type" : "integer",
					"description" : "The year of creation of this country, if after 1943."
				},
				"libCog" : {
					"type" : "string",
					"description" : "The name of this country used in the COG."
				},
				"libEnr" : {
					"type" : "string",
					"description" : "Official name of this country."
				},
				"iso2" : {
					"type" : "string",
					"description" : "The code iso bi-alpha, if any."
				},
				"iso3" : {
					"type" : "string",
					"description" : "The code iso tri-alpha, if any."
				},
				"isonum3" : {
					"type" : "string",
					"description" : "The code iso tri-alphanumeric, if any."
				}
			},
			"required" : ["id", "fkActualitePays", "libCog", "libEnr"]
		},
		"ApiFrInseeCogPaysHistory" : {
			"type" : "object",
			"description" : "This represents the events on the countries from the insee database.",
			"properties" : {
				"fkPaysId" : {
					"type" : "integer",
                    "description" : "The id of the related country."
				},
				"fkPaysBeforeId" : {
					"type" : "integer",
					"description" : "The id of the related country before this record exists."
				},
				"libCog" : {
					"type" : "string",
					"description" : "The name of this country used in the COG."
				},
				"libEnr" : {
					"type" : "string",
					"description" : "Official name of this country."
				},
				"dateStart" : {
					"type" : "string",
                    "description" : "The start date of validity of this country.",
                    "format" : "date"
				},
				"dateEnd" : {
                    "type" : "string",
                    "description" : "The end date of validity of this country.",
                    "format" : "date"
                }
			},
			"required" : ["fkPaysId", "libCog", "libEnr", "dateStart"]
		},
		"ApiFrInseeCogRegion" : {
			"type" : "object",
			"description" : "This class represents the regions from the insee database.",
			"properties" : {
				"id" : {
					"type" : "string",
					"description" : "The id of this region."
				},
				"fkPays" : {
					"type" : "string",
					"description" : "The fk of the related pays."
				},
				"fkCommuneCheflieu" : {
					"type" : "string",
					"description" : "The fk of the related commune as cheflieu."
				},
				"fkTncc" : {
					"type" : "integer",
					"description" : "The fk of the type of name of this region."
				},
				"ncc" : {
					"type" : "string",
					"description" : "The name of this region."
				},
				"nccenr" : {
					"type" : "string",
					"description" : "The enriched name of this region."
				}
			},
			"required" : ["id", "fkPays", "fkCommuneCheflieu", "fkTncc", "ncc", "nccenr"]
		},
		"ApiFrInseeCogTncc" : {
			"type" : "object",
			"description" : "The type of name in clear : this variable is to be able to write the complete name of the commune for a label with article and add link (charnière) if the name is used in an expression like « la commune de Marseille », « l'arrondissement du Mans », etc.\n\nFor names of communes (and cantons and arrondissements), the article is mandatory. (\"Rochelle\" does not exist without article => \"La Rochelle\").\nThis is not the case for department or region names (like \"Charente-Maritime\" without article). In that case, this code is only used for its link (charnière).\n\nExemple for a commune :\nCom = 104 | Dep = 66 | NCC = MASOS | TNCC = 8 | charnière = DE LOS | article = LOS\n\nName of the commune = LOS MASOS\nShould be written as : \"Commune DE LOS MASOS\" // \"commune de Los Masos\"",
			"properties" : {
				"id" : {
					"type" : "integer",
					"description" : "The id of type of name."
				},
				"article" : {
					"type" : "string",
					"description" : "The article of the noun."
				},
				"charniere" : {
					"type" : "string",
					"description" : "The charniere of the noun."
				},
				"espace" : {
					"type" : "string",
					"description" : "The space before the noun."
				}
			},
			"required" : ["id", "article", "charniere", "espace"]
		},
		"ApiFrInseeCogTypeCanton" : {
			"type" : "object",
			"description" : "This class represents the type of canton.",
			"properties" : {
				"id" : {
					"type" : "string",
					"description" : "The id of this type canton."
				},
				"libelle" : {
					"type" : "string",
					"description" : "The libelle of this type canton."
				}
			},
			"required" : ["id", "libelle"]
		},
		"ApiFrInseeCogTypeCommune" : {
			"type" : "object",
			"description" : "The type of commune replaces the old \"actual\" code but differs from it in that it does not represents the same state of a commune, but different communes altogether. There may exist a commune and a delegated commune with the same code.\n\nSince 2022, the type commune also includes the zoning type that is used with the collectivities on sea.",
			"properties" : {
				"id" : {
					"type" : "string",
					"description" : "The id of this type commune."
				},
				"libelle" : {
					"type" : "string",
					"description" : "The libelle of this type commune."
				}
			},
			"required" : ["id", "libelle"]
		},
		"ApiFrInseeCogTypeEventCommune" : {
			"type" : "object",
			"description" : "This class represents the reason for an event on a commune.",
			"properties" : {
				"id" : {
					"type" : "string",
					"description" : "The id of this type event."
				},
				"libelle" : {
					"type" : "string",
					"description" : "The libelle of this type event."
				}
			},
			"required" : ["id", "libelle"]
		}
	}
}